^C:\Users\steve\source\repos\ConsoleApplication1\ConsoleApplication1.vcxproj
C:\Users\steve\source\repos\ConsoleApplication1\Release\ConsoleApplication1.ipdb
C:\Users\steve\source\repos\ConsoleApplication1\Release\ConsoleApplication1.iobj
